Application;Component;Hostname;Description
corsoeshop;DBYPCOR1;degtlun2362;Corso Webshop Apache
corsoeshop;WSAPCOR1;degtlun2361;Corso Webshop Apache
corsoeshop;ASTPCOR1;degtlun2361;Corso Webshop Apache
corsoeshop;APMPASTPCOR1;degtlun2361;Corso Webshop Applicationsmonitor
otto netzwerk und idc;NWFP-FW-NGD-OTTO-GTL-DE00;fw-ngd-otto-gtl-de00.sec.arvato-systems.de;Otto - FW Cluster SSG550
otto netzwerk und idc;NWFP-FW-NGD-OTTO-GTL-DE02;fw-ngd-otto-gtl-de02.sec.arvato-systems.de;Otto - FW Cluster SSG550 G24xSysMgt000480
otto sap server linux basic;SYSPDEGTLUN2269;degtlun2269;APPLNR
otto netzwerk und idc;NWFP-FW-NGD-OTTO-GTL-DE01;fw-ngd-otto-gtl-de01.sec.arvato-systems.de;Otto - FW Cluster SSG550 G24xSysMgt000479
otto sap server linux basic;SYSPDEGTLUN2270;degtlun2270;APPLNR
od1 sap dev otto office otto;DBOTR3OD1-OTTO;gtunxlvz00234;SAP_R3_Datenbank_R3
od1 sap dev otto office otto;R3ATOD104-OTTO;gtunxlvz00234;SAP_R3_Applicationsserver_R3
od1 sap dev otto office otto;R3GTOD1-OTTO;gtunxlvz00234;SAP_R3_Global_R3
od1 sap dev otto office otto;SYSPDEGTLUN2269;degtlun2269;APPLNR
otto sap server linux premium;SYSPDEGTLUN2836;degtlun2836;APPLNR
otto sap server linux premium;SYSPDEGTLUN2835;degtlun2835;APPLNR
ok1 sap qa otto office otto;DBOIR3OK1-OTTO;degtlun2270.server.arvato-systems.de;SAP_R3_Datenbank_R3
ok1 sap qa otto office otto;R3AIOK105-OTTO;degtlun2270.server.arvato-systems.de;SAP_R3_Applicationsserver_R3
ok1 sap qa otto office otto;R3GIOK1-OTTO;degtlun2270.server.arvato-systems.de;SAP_R3_Global_R3
ok1 sap qa otto office otto;SYSPDEGTLUN2270;degtlun2270;APPLNR
op1 sap prd otto office otto;DBOPR3OP1-OTTO;degtlun2836.server.arvato-systems.de;SAP_R3_Datenbank_R3
op1 sap prd otto office otto;R3APOP106-OTTO;degtlun2836.server.arvato-systems.de;SAP_R3_Applicationsserver_R3
op1 sap prd otto office otto;R3GPOP1-OTTO;degtlun2836.server.arvato-systems.de;SAP_R3_Global_R3
op1 sap prd otto office otto;SYSPDEGTLUN2836;degtlun2836;APPLNR
pi1 sap dev pi otto;DBOTR3PI1-OTTO;degtluv8429.server.arvato-systems.de;SAP_R3_Datenbank_R3
pi1 sap dev pi otto;R3ATPI100-OTTO;degtluv8429.server.arvato-systems.de;SAP_R3_Applicationsserver_R3
pi1 sap dev pi otto;R3GTPI1-OTTO;degtluv8429.server.arvato-systems.de;SAP_R3_Global_R3
pi1 sap dev pi otto;R3QTPI100-OTTO;degtluv8429.server.arvato-systems.de;SAP_R3_J2EE_Server
f10 otto sap dev fico f2m;DBOTR3F10-OTTO;degtluv8428.server.arvato-systems.de;SAP_R3_Datenbank_R3
f10 otto sap dev fico f2m;R3ATF1014-OTTO;degtluv8428.server.arvato-systems.de;SAP_R3_Applicationsserver_R3
f10 otto sap dev fico f2m;R3GTF10-OTTO;degtluv8428.server.arvato-systems.de;SAP_R3_Global_R3
pi2 sap qa p4p pi otto;R3GIPI2-OTTO;degtluv8429.server.arvato-systems.de;SAP_R3_Global_R3
pi2 sap qa p4p pi otto;SYSPDEGTLUN2268;degtlun2268;APPLNR
pi2 sap qa p4p pi otto;DBOIR3PI2-OTTO;degtluv8429.server.arvato-systems.de;SAP_R3_Datenbank_R3
otto sap server linux premium;SYSPDEGTLUN2298;degtlun2298;APPLNR
otto sap server linux premium;SYSPDEGTLUN2297;degtlun2297;APPLNR
otto sap server linux basic;SYSPDEGTLUN2296;degtlun2296;APPLNR
f10 otto sap dev fico f2m;SYSPDEGTLUN2270;degtlun2270;APPLNR
okd sap dev otto okm otto;R3GTOKD-OTTO;degtluv8392.server.arvato-systems.de;SAP_R3_Global_R3
okd sap dev otto okm otto;SYSPDEGTLUN2269;degtlun2269;APPLNR
okd sap dev otto okm otto;R3ATOKD01-OTTO;degtluv8392.server.arvato-systems.de;SAP_R3_Applicationsserver_R3
otto netzwerk und idc;NWFP-FW-OTTO-VPNGW-GTL-DE01;fw-otto-vpngw-gtl-de01.sec.arvato-systems.de;managed by customer Otto
otto netzwerk und idc;NWFP-FW-OTTO-VPNGW-GTL-DE02;fw-otto-vpngw-gtl-de02.sec.arvato-systems.de;managed by customer Otto
f20 sap prd otto fico f2m otto;DBOPR3F20-OTTO;degtluv8447.server.arvato-systems.de;SAP_R3_Datenbank_R3
f20 sap prd otto fico f2m otto;R3APF2015-OTTO;degtluv8447.server.arvato-systems.de;SAP_R3_Applicationsserver_R3
f20 sap prd otto fico f2m otto;R3GPF20-OTTO;degtluv8447.server.arvato-systems.de;SAP_R3_Global_R3
pi3 sap prd p4p otto;R3APPI322-OTTO;degtluv8446.server.arvato-systems.de;SAP_R3_Applicationsserver_R3
pi3 sap prd p4p otto;R3GPPI3-OTTO;degtluv8446.server.arvato-systems.de;SAP_R3_Global_R3
pi3 sap prd p4p otto;DBOPR3PI3-OTTO;degtluv8446.server.arvato-systems.de;SAP_R3_Datenbank_R3
okq sap qa otto okm otto;SYSPDEGTLUN2270;degtlun2270;APPLNR
okq sap qa otto okm otto;R3AIOKQ02-OTTO;degtluv8392.server.arvato-systems.de;SAP_R3_Applicationsserver_R3
okq sap qa otto okm otto;R3GIOKQ-OTTO;degtluv8392.server.arvato-systems.de;SAP_R3_Global_R3
okp sap prd otto okm otto;DBOPR3OKP-OTTO;degtluv8427.server.arvato-systems.de;SAP_R3_Datenbank_R3
okp sap prd otto okm otto;R3APOKP03-OTTO;degtluv8427.server.arvato-systems.de;SAP_R3_Applicationsserver_R3
okp sap prd otto okm otto;R3GPOKP-OTTO;degtluv8427.server.arvato-systems.de;SAP_R3_Global_R3
okp sap prd otto okm otto;SYSPDEGTLUN2835;degtlun2835;APPLNR
f15 sap qa otto fico f2m otto;DBOIR3F15-OTTO;degtluv8428.server.arvato-systems.de;SAP_R3_Datenbank_R3
f15 sap qa otto fico f2m otto;R3AIF1516-OTTO;degtluv8428.server.arvato-systems.de;SAP_R3_Applicationsserver_R3
f15 sap qa otto fico f2m otto;R3GIF15-OTTO;degtluv8428.server.arvato-systems.de;SAP_R3_Global_R3
f15 sap qa otto fico f2m otto;SYSPDEGTLUN2269;degtlun2269;APPLNR
pi2 sap qa p4p pi otto;R3AIPI240-OTTO;degtluv8429.server.arvato-systems.de;SAP_R3_Applicationsserver_R3
pi2 sap qa p4p pi otto;R3QIPI240-OTTO;degtluv8429.server.arvato-systems.de;SAP_R3_J2EE_Server
wi3 sap prd wd pi otto;R3DPWI3-OTTO;degtluv8446.server.arvato-systems.de;SAP_WDISP
wi2 sap qa p4p pi otto;R3DIWI2-OTTO;degtluv8429.server.arvato-systems.de;SAP_WDISP
otto sap server linux premium;SYSPDEGTLUN2844;degtlun2844;APPLNR
otto sap server linux premium;SYSPDEGTLUN2843;degtlun2843;APPLNR
otto sap p4p solman dev;R3GTS1T-OTTO;degtluv8259;SAP_R3_Global_R3
otto sap p4p solman dev;DBOTR3S1T-OTTO;degtluv8259;SAP_R3_Datenbank_R3
otto sap p4p solman dev;R3QTS1T00-OTTO;degtluv8259;SAP_R3_J2EE_Server
otto sap p4p solman dev;R3ATS1T00-OTTO;degtluv8259;SAP_R3_Applicationsserver_R3
otto sap p4p solman prd;R3APS1P10-OTTO;degtluv8413;SAP_R3_Applicationsserver_R3
otto sap p4p solman prd;SYSPDEGTLUN2843;degtlun2843;APPLNR
d70 sap aakit otto;R3GTD70-OTTO;degtluv8180;SAP_R3_Global_R3
d70 sap aakit otto;SYSPDEGTLUN2269;degtlun2269;APPLNR
d70 sap aakit otto;DBOTR3D70-OTTO;degtluv8180;SAP_R3_Datenbank_R3
d70 sap aakit otto;R3ATD7000-OTTO;degtluv8180;SAP_R3_Applicationsserver_R3
o70 sap aakit otto;R3GIO70-OTTO;degtluv8180;SAP_R3_Global_R3
o70 sap aakit otto;SYSPDEGTLUN2270;degtlun2270;APPLNR
o70 sap aakit otto;DBOIR3O70-OTTO;degtluv8180;SAP_R3_Datenbank_R3
o70 sap aakit otto;R3AIO7010-OTTO;degtluv8180;SAP_R3_Applicationsserver_R3
t01 sap hcm otto;DBOTR3T01-OTTO;degtluv8426.server.arvato-systems.de;SAP_R3_Datenbank_R3
t01 sap hcm otto;R3ATT0110-OTTO;degtluv8426.server.arvato-systems.de;SAP_R3_Applicationsserver_R3
t01 sap hcm otto;R3GTT01-OTTO;degtluv8426.server.arvato-systems.de;SAP_R3_Global_R3
t01 sap hcm otto;SYSPDEGTLUN2312;degtlun2312;APPLNR
otto sap server linux basic;SYSPDEGTLUN2313;degtlun2313;APPLNR
otto sap server linux basic;SYSPDEGTLUN2312;degtlun2312;APPLNR
otto sap p4p solman dev;R3XTT1T-OTTO;degtluv8259;SAP_SAPTREX
otto sap p4p solman dev;SYSPDEGTLUN2268;degtlun2268;APPLNR
otto sap server linux premium;SMCDECLUPOTTO1;csgpottoop1;Cluster Monitor Component for DECLUPOTTO1
otto sap server linux premium;SSCPOTTO01;csgpottoop1.server.arvato-systems.de;Cluster Monitor Component for OTTO
ptt sap hcm otto;DBOTR3PTT-OTTO;degtluv8621.server.arvato-systems.de;SAP_R3_Datenbank_R3
ptt sap hcm otto;SYSPDEGTLUN2313;degtlun2313;APPLNR
ptt sap hcm otto;R3QTPTT40-OTTO;degtluv8621.server.arvato-systems.de;SAP_R3_J2EE_Server
bht sap hcm otto;DBOTR3BHT-OTTO;degtluv8623;SAP_R3_Datenbank_R3
bht sap hcm otto;R3ATBHT01-OTTO;degtluv8623;SAP_R3_Applicationsserver_R3
bht sap hcm otto;R3GTBHT-OTTO;degtluv8623;SAP_R3_Global_R3
bht sap hcm otto;SYSPDEGTLUN2313;degtlun2313;APPLNR
bi1 sap eccs otto;R3GTBI1-OTTO;degtluv8624;SAP_R3_Global_R3
bi1 sap eccs otto;SYSPDEGTLUN2296;degtlun2296;APPLNR
bi1 sap eccs otto;DBOTR3BI1-OTTO;degtluv8624;SAP_R3_Datenbank_R3
bi1 sap eccs otto;R3ATBI103-OTTO;degtluv8624;SAP_R3_Applicationsserver_R3
bj1 sap eccs otto;SYSPDEGTLUN2296;degtlun2296;APPLNR
bj1 sap eccs otto;DBOTR3BJ1-OTTO;degtluv8405;SAP_R3_Datenbank_R3
bj1 sap eccs otto;R3ATBJ110-OTTO;degtlun2296;OTTO-SAP-ECCS-BJ1
ptp sap hcm otto;DBOPR3PTP-OTTO;degtluv8641.server.arvato-systems.de;SAP_R3_Datenbank_R3
ptp sap hcm otto;R3QPPTP30-OTTO;degtluv8641.server.arvato-systems.de;SAP_R3_J2EE_Server
ptt sap hcm otto;R3ATPTT40-OTTO;degtlun2313;OTTO-SAP-HCM-PTT
f20 sap prd otto fico f2m otto;SYSPDEGTLUN2297;degtlun2297;APPLNR
op1 sap prd otto office otto;R3APOP156-OTTO;degtlun2298.server.arvato-systems.de;SAP_R3_Applicationsserver_R3
op1 sap prd otto office otto;SYSPDEGTLUN2298;degtlun2298;APPLNR
rp1 sap hcm otto;R3GPRP1-OTTO;degtluv8622.server.arvato-systems.de;SAP_R3_Global_R3
rp1 sap hcm otto;DBOPR3RP1-OTTO;degtluv8622.server.arvato-systems.de;SAP_R3_Datenbank_R3
rp1 sap hcm otto;R3APRP130-OTTO;degtluv8622.server.arvato-systems.de;SAP_R3_Applicationsserver_R3
bhk sap hcm otto;DBOIR3BHK-OTTO;degtluv8623;SAP_R3_Datenbank_R3
bhk sap hcm otto;SYSPDEGTLUN2312;degtlun2312;APPLNR
bhk sap hcm otto;R3AIBHK03-OTTO;degtluv8623;SAP_R3_Applicationsserver_R3
bhk sap hcm otto;R3GIBHK-OTTO;degtluv8623;SAP_R3_Global_R3
k01 sap hcm otto;DBOIR3K01-OTTO;degtluv8426.server.arvato-systems.de;SAP_R3_Datenbank_R3
k01 sap hcm otto;R3AIK0100-OTTO;degtluv8426.server.arvato-systems.de;SAP_R3_Applicationsserver_R3
k01 sap hcm otto;R3GIK01-OTTO;degtluv8426.server.arvato-systems.de;SAP_R3_Global_R3
k01 sap hcm otto;SYSPDEGTLUN2312;degtlun2312;APPLNR
ptk sap hcm otto;SYSPDEGTLUN2312;degtlun2312;APPLNR
ptk sap hcm otto;DBOIR3PTK-OTTO;degtluv8621.server.arvato-systems.de;SAP_R3_Datenbank_R3
ptk sap hcm otto;R3AIPTK50-OTTO;degtlun2312;OTTO-SAP-HCM-PTK
ptk sap hcm otto;R3QIPTK50-OTTO;degtluv8621.server.arvato-systems.de;SAP_R3_J2EE_Server
bi2 sap eccs otto;DBOPR3BI2-OTTO;degtluv8640;SAP_R3_Datenbank_R3
bi2 sap eccs otto;R3APBI213-OTTO;degtluv8640;SAP_R3_Applicationsserver_R3
bi2 sap eccs otto;R3GPBI2-OTTO;degtluv8640;SAP_R3_Global_R3
bi2 sap eccs otto;SYSPDEGTLUN2844;degtlun2844;APPLNR
p01 sap hcm otto;SYSPDEGTLUN2835;degtlun2835;APPLNR
bhp sap hcm otto;DBOPR3BHP-OTTO;degtluv8643;SAP_R3_Datenbank_R3
bhp sap hcm otto;SYSPDEGTLUN2844;degtlun2844;APPLNR
bhp sap hcm otto;R3APBHP02-OTTO;degtluv8643;SAP_R3_Applicationsserver_R3
bhp sap hcm otto;R3GPBHP-OTTO;degtluv8643;SAP_R3_Global_R3
ptp sap hcm otto;R3APPTP30-OTTO;degtlun2844;OTTO-SAP-HCM-PTP
ptp sap hcm otto;SYSPDEGTLUN2844;degtlun2844;APPLNR
otto sap p4p solman prd;DBOPR3S1P-OTTO;degtluv8413;SAP_R3_Datenbank_R3
otto sap p4p solman prd;R3GPS1P-OTTO;degtluv8413;SAP_R3_Global_R3
otto sap p4p solman prd;R3QPS1P10-OTTO;degtluv8413;SAP_R3_J2EE_Server
bj1 sap eccs otto;R3QTBJ110-OTTO;degtluv8405;SAP_R3_J2EE_Server
it1 sap eccs otto;R3GTIT1-OTTO;degtluv8444.server.arvato-systems.de;SAP_R3_Global_R3
it1 sap eccs otto;SYSPDEGTLUN2312;degtlun2312;APPLNR
it1 sap eccs otto;DBOTR3IT1-OTTO;degtluv8444.server.arvato-systems.de;SAP_R3_Datenbank_R3
it1 sap eccs otto;R3ATIT104-OTTO;degtluv8444.server.arvato-systems.de;SAP_R3_Applicationsserver_R3
ip1 sap eccs otto;R3GPIP1-OTTO;degtluv8448.server.arvato-systems.de;SAP_R3_Global_R3
ip1 sap eccs otto;SYSPDEGTLUN2843;degtlun2843;APPLNR
ip1 sap eccs otto;DBOPR3IP1-OTTO;degtluv8448.server.arvato-systems.de;SAP_R3_Datenbank_R3
ip1 sap eccs otto;R3APIP105-OTTO;degtluv8448.server.arvato-systems.de;SAP_R3_Applicationsserver_R3
iq1 sap eccs otto;R3GIIQ1-OTTO;degtlun2313.server.arvato-systems.de;SAP_R3_Global_R3
iq1 sap eccs otto;SYSPDEGTLUN2313;degtlun2313;APPLNR
iq1 sap eccs otto;DBOIR3IQ1-OTTO;degtlun2313.server.arvato-systems.de;SAP_R3_Datenbank_R3
iq1 sap eccs otto;R3AIIQ105-OTTO;degtlun2313.server.arvato-systems.de;SAP_R3_Applicationsserver_R3
ptp sap hcm otto;R3DPW32-OTTO;degtluv8641.server.arvato-systems.de;SAP_WDISP
corsoeshop;SYSPDEGTLUN2361;degtlun2361;APPLNR
corsoeshop;SYSPDEGTLUN2362;degtlun2362;APPLNR
f20 sap prd otto fico f2m otto;SYSPDEGTLUN2835;degtlun2835;APPLNR
rbp sap prod rainbow otto;SYSPDEGTLUN2844;degtlun2844;APPLNR
ok1 sap qa otto office otto;SYSPDEGTLUN2247;degtlun2247;APPLNR
op1 sap prd otto office otto;R3APOP157-OTTO;degtlun2297.server.arvato-systems.de;SAP_R3_Applicationsserver_R3
op1 sap prd otto office otto;SYSPDEGTLUN2297;degtlun2297;APPLNR
rbp sap prod rainbow otto;SYSPDEGTLUN2907;degtlun2907;APPLNR
oj2 sap prod otto office otto;R3QPOJ230-OTTO;degtlun2907.server.arvato-systems.de;SAP_R3_J2EE_Server
oj2 sap prod otto office otto;SYSPDEGTLUN2907;degtlun2907;APPLNR
oj2 sap prod otto office otto;R3APOJ230-OTTO;degtlun2907;
oj2 sap prod otto office otto;DBOPR3OJ2-OTTO;degtlun2907.server.arvato-systems.de;SAP_R3_Datenbank_R3
pi3 sap prd p4p otto;SYSPDEGTLUN2298;degtlun2298;APPLNR
otto virtual server prod;SYSPDEGTLUV4718;degtluv4718.server.arvato-systems.de;Linux Server Linux
otto virtual server prod;SYSPGTLNMIWVM1265;gtlnmiwvm1265.server.arvato-systems.de;vm on asy_NGD_SPLA, Otto HCM Server/Windows Server 2008 enterprise 64 Bit R2
otto netzwerk und idc;NWFP-FW-NGD-FROOTTO-GTL-DE01;fw-ngd-frootto-gtl-de01.sec.arvato-systems.de;Monitor for Network component fw-ngd-frootto-gtl-de01
otto netzwerk und idc;NWFP-FW-NGD-FROOTTO-GTL-DE00;fw-ngd-frootto-gtl-de00.sec.arvato-systems.de;Monitor for Network component fw-ngd-frootto-gtl-de00
otto netzwerk und idc;NWFP-FW-NGD-FROOTTO-GTL-DE02;fw-ngd-frootto-gtl-de02.sec.arvato-systems.de;Monitor for Network component fw-ngd-frootto-gtl-de02
bj3 sap eccs otto;DBOPR3BJ3-OTTO;degtluv8414.server.arvato-systems.de;SAP_R3_Datenbank_R3
bj3 sap eccs otto;R3APBJ340-OTTO;degtlun2843;Aufbau BJ3 ECCS OTTO
bi2 sap eccs otto;SYSPDEGTLUN2843;degtlun2843;APPLNR
bj3 sap eccs otto;SYSPDEGTLUN2843;degtlun2843;APPLNR
pi1 sap dev pi otto;R3DTWI6-OTTO;degtluv4721;SAP_WDISP
pi1 sap dev pi otto;SYSPDEGTLUV4721;degtluv4721.server.arvato-systems.de;Linux Server Linux
pi2 sap qa p4p pi otto;R3DIWI7-OTTO;degtluv4723;SAP_WDISP
pi2 sap qa p4p pi otto;SYSPDEGTLUV4723;degtluv4723.server.arvato-systems.de;Linux Server Linux
pi3 sap prd p4p otto;R3DPWI8-OTTO;degtluv4722;SAP_WDISP
bj3 sap eccs otto;R3QPBJ340-OTTO;degtluv8414.server.arvato-systems.de;SAP_R3_J2EE_Server
otto virtual server prod;SYSPGTLNMIESX0223;gtlnmiesx0223.server.arvato-systems.de;VMware Hostserver for OTTO/VMware ESX 5.0i
otto virtual server prod;SYSPGTLNMIESX0224;gtlnmiesx0224;new ProdControl  gtlnmiesx0224.server.arvato-systems.de
otto virtual server prod;SYSPDEGTLUV4841;degtluv4841.server.arvato-systems.de;Linux Server Linux
otto sap monitoring;R3DIWI8-OTTO;degtluv4718;SAP_WDISP
otto sap monitoring;SYSPDEGTLUV4718;degtluv4718.server.arvato-systems.de;Linux Server Linux
otto sap monitoring;SYSPDEGTLUN2296;degtlun2296;APPLNR
otto sap monitoring;R3DPWI9-OTTO;degtluv8640;SAP_WDISP
odl sap dev otto office otto;R3GTODL-OTTO;gtunxlva00235;SAP_R3_Global_R3
odl sap dev otto office otto;SYSPDEGTLUN2268;degtlun2268;APPLNR
odl sap dev otto office otto;DBOTR3ODL-OTTO;gtunxlva00235;SAP_R3_Datenbank_R3
odl sap dev otto office otto;R3ATODL12-OTTO;gtunxlva00235;SAP_R3_Applicationsserver_R3
otto virtual server prod;EXAPNOC180;gtlnmiesx0224.server.arvato-systems.de;VMware Hostserver for OTTO/VMware ESX 5.0i
otto virtual server prod;VHGPESX-OTTO;esx-otto;Neuer ESX Cluster fuer Otto
corsoeshop;;
otto netzwerk und idc;;
otto sap server linux basic;;
otto sap server linux premium;;
ok1 sap qa otto office otto;;
okq sap qa otto okm otto;;
pi1 sap dev pi otto;;
f15 sap qa otto fico f2m otto;;
wi2 sap qa p4p pi otto;;
o70 sap aakit otto;;
d70 sap aakit otto;;
k01 sap hcm otto;;
bhk sap hcm otto;;
iq1 sap eccs otto;;
sapftpb fileserver sap otto;;
okl sap qa ewm otto office otto;R3GIOKL-OTTO;gtunxlva00235;SAP_R3_Global_R3
okl sap qa ewm otto office otto;DBOIR3OKL-OTTO;gtunxlva00235;SAP_R3_Datenbank_R3
okl sap qa ewm otto office otto;R3AIOKL17-OTTO;gtunxlva00235;SAP_R3_Applicationsserver_R3
otto sap p4p solman dev;SYSPDEGTLUV4722;degtluv4722.server.arvato-systems.de;Linux Server Linux
otto sap monitoring;SYSPDEGTLUN2835;degtlun2835;APPLNR
rp1 sap hcm otto;R3DPWI5-OTTO;gtlnmiwvm1265;SAP_WDISP
rbp sap prod rainbow otto;SYSPDEGTLUN2298;degtlun2298;APPLNR
ect sap ecehr otto;R3GTECT-OTTO;degtluv8625.server.arvato-systems.de;SAP_R3_Global_R3
ect sap ecehr otto;DBOTR3ECT-OTTO;degtluv8625.server.arvato-systems.de;SAP_R3_Datenbank_R3
ect sap ecehr otto;R3ATECT00-OTTO;degtluv8625.server.arvato-systems.de;SAP_R3_Applicationsserver_R3
ect sap ecehr otto;SYSPDEGTLUN2312;degtlun2312;APPLNR
ecp sap ecehr otto;R3APECP05-OTTO;degtluv8642.server.arvato-systems.de;SAP_R3_Applicationsserver_R3
ecp sap ecehr otto;DBOPR3ECP-OTTO;degtluv8642.server.arvato-systems.de;SAP_R3_Datenbank_R3
ecp sap ecehr otto;R3GPECP-OTTO;degtluv8642.server.arvato-systems.de;SAP_R3_Global_R3
ecp sap ecehr otto;SYSPDEGTLUN2836;degtlun2836;APPLNR
opl sap prd ewm otto office otto;R3GPOPL-OTTO;degtlun2908.server.arvato-systems.de;SAP_R3_Global_R3
opl sap prd ewm otto office otto;DBOPR3OPL-OTTO;degtlun2908.server.arvato-systems.de;SAP_R3_Datenbank_R3
opl sap prd ewm otto office otto;R3APOPL33-OTTO;degtlun2908.server.arvato-systems.de;SAP_R3_Applicationsserver_R3
opl sap prd ewm otto office otto;SYSPDEGTLUN2908;degtlun2908;APPLNR
s01 sap hcm sanbox otto;SYSPDEGTLUN2312;degtlun2312;APPLNR
otto sap monitoring;R3RP99UV4841-OTTO;degtluv4841;SAP_SAPROUTER
otto sap monitoring;SYSPDEGTLUV4841;degtluv4841.server.arvato-systems.de;Linux Server Linux
ptp sap hcm otto;WSAPOTT1;degtluv4718;OTTO Webdispatcher SAP-System RP1
ptp sap hcm otto;SYSPDEGTLUV4718;degtluv4718.server.arvato-systems.de;Linux Server Linux
pi3 sap prd p4p otto;R3QPPI322-OTTO;degtluv8446.server.arvato-systems.de;SAP_R3_J2EE_Server
okl sap qa ewm otto office otto;;
otto sap p4p solman dev;;
wi3 sap prd wd pi otto;;
rbp sap prod rainbow otto;;
otto sap p4p solman prd;R3XPT1P-OTTO;degtluv8413;SAP_SAPTREX
sf1 netweaver sap fiori temp otto;R3GTFRS-OTTO;degtluv8181;SAP_R3_Global_R3
sf1 netweaver sap fiori temp otto;DBOTR3FRS-OTTO;degtluv8181;SAP_R3_Datenbank_R3
sf1 netweaver sap fiori temp otto;R3ATFRS35-OTTO;degtluv8181;SAP_R3_Applicationsserver_R3
ptk sap hcm otto;R3DIW20-OTTO;degtluv8621.server.arvato-systems.de;SAP_WDISP
ptk sap hcm otto;;
otto virtual server prod;SYSPDEGTLUV8181;degtluv8181;
otto virtual server prod;SYSPDEGTLUV8180;degtluv8180;
otto virtual server prod;SYSPDEGTLUV8259;degtluv8259;
otto virtual server prod;SYSPDEGTLUV8258;degtluv8258;
s1d sap dev solman otto;SYSPDEGTLUV8258;degtluv8258;
otto virtual server prod;SYSPDEGTLUV8214;degtluv8214;
s1q sap qa solman otto;R3GTS1Q-OTTO;degtluv8259;SAP_R3_Global_R3
s1q sap qa solman otto;SYSPDEGTLUV8259;degtluv8259;
s1q sap qa solman otto;DBOTR3S1Q-OTTO;degtluv8259;SAP_R3_Datenbank_R3
s1q sap qa solman otto;R3ATS1Q10-OTTO;degtluv8259;SAP_R3_Applicationsserver_R3
s1q sap qa solman otto;R3XIT1Q-OTTO;degtluv8259;SAP_SAPTREX
s1q sap qa solman otto;R3QTS1Q10-OTTO;degtluv8259;SAP_R3_J2EE_Server
otto esx server;SYSPGTLNMIESX0436;gtlnmiesx0436.server.arvato-systems.de;VMware Hostserver for OTTO/VMware ESX 5.5i
otto esx server;SYSPGTLNMIESX0437;gtlnmiesx0437.server.arvato-systems.de;VMware Hostserver for OTTO/VMware ESX 5.5i
otto esx server;SYSPGTLNMIESX0438;gtlnmiesx0438.server.arvato-systems.de;VMware Hostserver for OTTO/VMware ESX 5.5i
otto esx server;SYSPGTLNMIESX0439;gtlnmiesx0439.server.arvato-systems.de;VMware Hostserver for OTTO/VMware ESX 5.5i
otto sap fico boq;SYSPGTLNMIWVM2057;gtlnmiwvm2057.server.arvato-systems.de;VM on Otto-SAP; VM für BOQ/Windows Server 2012 Standard R2
otto sap fico bop;SYSPGTLNMIWVM2055;gtlnmiwvm2055.server.arvato-systems.de;vm on asy_NGD_SPLA; OTTO SAP BO/Windows Server 2012 R2 Standard
otto sap fico bod;SYSPGTLNMIWVM2056;gtlnmiwvm2056.server.arvato-systems.de;vm on asy_NGD_SPLA; OTTO SAP BO/Windows Server 2012 R2 Standard
okd sap dev otto okm otto;SYSPDEGTLUV8392;degtluv8392;
bj1 sap eccs otto;SYSPDEGTLUV8396;degtluv8396;
otto esx server;SYSPDEGTLUV8405;degtluv8405;
s1q sap qa solman otto;;
s1d sap dev solman otto;;
sf1 netweaver sap fiori temp otto;;
otto sap p4p solman prd;SYSPDEGTLUV8413;degtluv8413;
bj3 sap eccs otto;SYSPDEGTLUV8414;degtluv8414;
okp sap prd otto okm otto;SYSPDEGTLUV8427;degtluv8427;
f10 otto sap dev fico f2m;SYSPDEGTLUV8428;degtluv8428;
pi2 sap qa p4p pi otto;SYSPDEGTLUV8429;degtluv8429;
t01 sap hcm otto;SYSPDEGTLUV8426;degtluv8426;
it1 sap eccs otto;SYSPDEGTLUV8444;degtluv8444;
p01 sap hcm otto;SYSPDEGTLUV8445;degtluv8445;
pi3 sap prd p4p otto;SYSPDEGTLUV8446;degtluv8446;
f20 sap prd otto fico f2m otto;SYSPDEGTLUV8447;degtluv8447;
ip1 sap eccs otto;SYSPDEGTLUV8448;degtluv8448;
otto sap fico bop;;
frp otto sap fiori prd;SYSPDEGTLUV8496;degtluv8496;
bi1 sap eccs otto;R3DIWI1-OTTO;degtluv8405;SAP_WDISP
bi1 sap eccs otto;SYSPDEGTLUV8405;degtluv8405;
ect sap ecehr otto;SYSPDEGTLUV8625;degtluv8625;
ptt sap hcm otto;SYSPDEGTLUV8621;degtluv8621;
rp1 sap hcm otto;SYSPDEGTLUV8622;degtluv8622;
bht sap hcm otto;SYSPDEGTLUV8623;degtluv8623;
bi1 sap eccs otto;SYSPDEGTLUV8624;degtluv8624;
frp netweaver sap fiori prod otto;DBOPR3FRP-OTTO;degtluv8496;SAP_R3_Datenbank_R3
frp netweaver sap fiori prod otto;R3GPFRP-OTTO;degtluv8496;SAP_R3_Global_R3
frp netweaver sap fiori prod otto;R3APFRP45-OTTO;degtluv8496;SAP_R3_Applicationsserver_R3
frp netweaver sap fiori prod otto;SYSPDEGTLUV8496;degtluv8496;
p01 sap hcm otto;DBOPR3P01-OTTO;degtluv8445.server.arvato-systems.de;SAP_R3_Datenbank_R3
p01 sap hcm otto;R3APP0110-OTTO;degtluv8445.server.arvato-systems.de;SAP_R3_Applicationsserver_R3
p01 sap hcm otto;R3GPP01-OTTO;degtluv8445.server.arvato-systems.de;SAP_R3_Global_R3
frp otto sap fiori prd;R3GPFRP-OTTO;degtluv8496;SAP_R3_Global_R3
frp otto sap fiori prd;DBOPR3FRP-OTTO;degtluv8496;SAP_R3_Datenbank_R3
frp otto sap fiori prd;R3APFRP45-OTTO;degtluv8496;SAP_R3_Applicationsserver_R3
bi2 sap eccs otto;SYSPDEGTLUV8640;degtluv8640;
ptp sap hcm otto;SYSPDEGTLUV8641;degtluv8641;
ecp sap ecehr otto;SYSPDEGTLUV8642;degtluv8642;
bhp sap hcm otto;SYSPDEGTLUV8643;degtluv8643;
oks sap sand otto okm otto;R3AIOKS02-OTTO;degtluv8214.server.arvato-systems.de;SAP_R3_Applicationsserver_R3
oks sap sand otto okm otto;SYSPDEGTLUV8214;degtluv8214;
oks sap sand otto okm otto;R3GIOKS-OTTO;degtluv8214.server.arvato-systems.de;SAP_R3_Global_R3
oks sap sand otto okm otto;DBOIR3OKS-OTTO;degtluv8214.server.arvato-systems.de;SAP_R3_Datenbank_R3
okd sap dev otto okm otto;SYSPDEGTLUN5525;degtlun5525;
okp sap prd otto okm otto;SYSPDEGTLUN5527;degtlun5527;
okp sap prd otto okm otto;SYSPDEGTLUN5526;degtlun5526;
okd sap dev otto okm otto;DBHTR3OHDN01-OTTO;degtlun5525;SAP_DBH_MASTER_UNX
bot sap eccs otto;SYSPGTLNMIWVM1416;gtlnmiwvm1416.server.arvato-systems.de;vm on asy_NGD_SPLA; OTTO SAP BO/Windows Server 2008 Enterprise 64 Bit R2
box sap bo eccs otto;SYSPGTLNMIWVM1481;gtlnmiwvm1481.server.arvato-systems.de;vm on asy_NGD_SPLA; OTTO SAP BO/Windows Server 2008 Enterprise 64 Bit R2
od1 sap dev otto office otto;SYSPGTUNXLVZ00234;gtunxlvz00234;
odl sap dev otto office otto;SYSPGTUNXLVA00235;gtunxlva00235;
ptp sap hcm otto;WSAPPTP1;degtluv8641;Proxy for PTP Otto
okp sap prd otto okm otto;DBHPR3OHPN01-OTTO;degtlun5527;
f20 sap prd otto fico f2m otto;;
frp otto sap fiori prd;NWFP-FW-NGD-OTTO-GTL-DE00;fw-ngd-otto-gtl-de00.sec.arvato-systems.de;Otto - FW Cluster SSG550
oj2 sap prod otto office otto;SYSPGTUNXLVF00318;gtunxlvf00318;
op1 sap prd otto office otto;SYSPGTUNXLVG00319;gtunxlvg00319;
opl sap prd ewm otto office otto;SYSPGTUNXLVH00320;gtunxlvh00320;
otto solman sandbox;SYSPGTUNXLVJ00322;gtunxlvj00322;
otto sap monitoring;DBHIR3OHQN01-OTTO;degtlun5526;SAP_DBH_MASTER_UNX
otto sap bwa bhp premium;;
psa_opoel_test;;
